Mini_projet_FFT/BCA_SAVE/trace.vcd
$date
     Mar 14, 2023       14:57:27
$end

$version
 SystemC 2.3.3-Accellera --- Jun  7 2022 13:10:00
$end

$timescale
     1 ns
$end

$scope module SystemC $end
$var wire    1  aaaaa  clk       $end
$var wire    1  aaaab  data_req_sink       $end
$var wire    1  aaaac  data_req_fft       $end
$var wire    1  aaaad  data_valid_source       $end
$var wire    1  aaaae  data_valid_fft       $end
$var real    1  aaaaf  source_fft_real       $end
$var real    1  aaaag  source_fft_img       $end
$var real    1  aaaah  fft_sink_real       $end
$var real    1  aaaai  fft_sink_img       $end
$upscope $end
$enddefinitions  $end

$comment
All initial values are dumped below at time 0 sec = 0 timescale units.
$end

$dumpvars
1aaaaa
1aaaab
1aaaac
1aaaad
0aaaae
r2011 aaaaf
r2011 aaaag
r0 aaaah
r0 aaaai
$end

#5
0aaaaa

#10
1aaaaa

#15
0aaaaa

#20
1aaaaa

#25
0aaaaa

#30
1aaaaa

#35
0aaaaa

#40
1aaaaa

#45
0aaaaa

#50
1aaaaa

#55
0aaaaa

#60
1aaaaa

#65
0aaaaa

#70
1aaaaa

#75
0aaaaa

#80
1aaaaa
0aaaac
r1 aaaaf
r1 aaaag

#85
0aaaaa

#90
1aaaaa
1aaaac

#95
0aaaaa

#100
1aaaaa
1aaaae
r0 aaaaf
r0 aaaag
r16088 aaaah
r16088 aaaai

#105
0aaaaa

#110
1aaaaa
r0 aaaah
r0 aaaai

#115
0aaaaa

#120
1aaaaa

#125
0aaaaa

#130
1aaaaa

#135
0aaaaa

#140
1aaaaa

#145
0aaaaa

#150
1aaaaa

#155
0aaaaa

#160
1aaaaa

#165
0aaaaa

#170
1aaaaa
0aaaac
r456 aaaag

#175
0aaaaa

#180
1aaaaa
1aaaac
0aaaae

#185
0aaaaa

#190
1aaaaa
1aaaae
r120 aaaaf
r234 aaaag
r1 aaaah
r1 aaaai

#195
0aaaaa

#200
1aaaaa
r234 aaaaf
r120 aaaag

#205
0aaaaa

#210
1aaaaa
r120 aaaaf
r0 aaaag

#215
0aaaaa

#220
1aaaaa
r0 aaaaf
r-120 aaaag

#225
0aaaaa

#230
1aaaaa
r-120 aaaaf
r-234 aaaag

#235
0aaaaa

#240
1aaaaa
r-234 aaaaf
r-456 aaaag

#245
0aaaaa

#250
1aaaaa
r-120 aaaaf
r-768 aaaag

#255
0aaaaa

#260
1aaaaa
0aaaac
r123 aaaaf
r29 aaaag

#265
0aaaaa

#270
1aaaaa
1aaaac
0aaaae

#275
0aaaaa

#280
1aaaaa
1aaaae
r34 aaaaf
r34 aaaag
r0 aaaah
r-768 aaaai

#285
0aaaaa

#290
1aaaaa
r-23 aaaaf
r85 aaaag
r1449.984008789062 aaaah
r-443.5433044433594 aaaai

#295
0aaaaa

#300
1aaaaa
r12 aaaaf
r206 aaaag
r768 aaaah
r672 aaaai

#305
0aaaaa

#310
1aaaaa
r45 aaaaf
r336 aaaag
r297.9839782714844 aaaah
r916.7207641601562 aaaai

#315
0aaaaa

#320
1aaaaa
r0 aaaaf
r593 aaaag
r0 aaaah
r768 aaaai

#325
0aaaaa

#330
1aaaaa
r67 aaaaf
r823 aaaag
r-297.9839782714844 aaaah
r659.5432739257812 aaaai

#335
0aaaaa

#340
1aaaaa
r134 aaaaf
r422 aaaag
r-768 aaaah
r672 aaaai

#345
0aaaaa

#350
1aaaaa
0aaaac
r-1449.984008789062 aaaah
r1171.279174804688 aaaai

#355
0aaaaa

#360
1aaaaa
1aaaac
0aaaad
0aaaae

#365
0aaaaa

#370
1aaaaa
1aaaae
r392 aaaah
r2528 aaaai

#375
0aaaaa

#380
1aaaaa
r-1097.699096679688 aaaah
r-397.3122253417969 aaaai

#385
0aaaaa

#390
1aaaaa
r123 aaaah
r-431 aaaai

#395
0aaaaa

#400
1aaaaa
r157.68359375 aaaah
r-92.23697662353516 aaaai

#405
0aaaaa

#410
1aaaaa
r32 aaaah
r18 aaaai

#415
0aaaaa

#420
1aaaaa
r-222.3009033203125 aaaah
r-36.68777084350586 aaaai

#425
0aaaaa

#430
1aaaaa
r125 aaaah
r-655 aaaai

#435
0aaaaa

#440
1aaaaa
r1474.31640625 aaaah
r-701.7630004882812 aaaai

#445
0aaaaa

#450
1aaaaa
0aaaae

