Mini_projet_FFT/CABA/trace.vcd
$date
     Mar 14, 2023       15:30:46
$end

$version
 SystemC 2.3.3-Accellera --- Jun  7 2022 13:10:00
$end

$timescale
     1 ns
$end

$scope module SystemC $end
$var wire    1  aaaaa  clk       $end
$var wire    1  aaaab  data_req_sink       $end
$var wire    1  aaaac  data_req_fft       $end
$var wire    1  aaaad  data_valid_source       $end
$var wire    1  aaaae  data_valid_fft       $end
$var wire   23  aaaaf  source_fft_real [22:0]  $end
$var wire   23  aaaag  source_fft_img [22:0]  $end
$var wire   23  aaaah  fft_sink_real [22:0]  $end
$var wire   23  aaaai  fft_sink_img [22:0]  $end
$upscope $end
$enddefinitions  $end

$comment
All initial values are dumped below at time 0 sec = 0 timescale units.
$end

$dumpvars
1aaaaa
1aaaab
1aaaac
1aaaad
0aaaae
b1111101101100000 aaaaf
b1111101101100000 aaaag
b0 aaaah
b0 aaaai
$end

#5
0aaaaa

#10
1aaaaa

#15
0aaaaa

#20
1aaaaa

#25
0aaaaa

#30
1aaaaa

#35
0aaaaa

#40
1aaaaa

#45
0aaaaa

#50
1aaaaa

#55
0aaaaa

#60
1aaaaa

#65
0aaaaa

#70
1aaaaa

#75
0aaaaa

#80
1aaaaa
0aaaac
b100000 aaaaf
b100000 aaaag

#85
0aaaaa

#90
1aaaaa
1aaaac

#95
0aaaaa

#100
1aaaaa
1aaaae
b0 aaaaf
b0 aaaag
b1111101101100000000 aaaah
b1111101101100000000 aaaai

#105
0aaaaa

#110
1aaaaa
b0 aaaah
b0 aaaai

#115
0aaaaa

#120
1aaaaa

#125
0aaaaa

#130
1aaaaa

#135
0aaaaa

#140
1aaaaa

#145
0aaaaa

#150
1aaaaa

#155
0aaaaa

#160
1aaaaa

#165
0aaaaa

#170
1aaaaa
0aaaac
b11100100000000 aaaag

#175
0aaaaa

#180
1aaaaa
1aaaac
0aaaae

#185
0aaaaa

#190
1aaaaa
1aaaae
b111100000000 aaaaf
b1110101000000 aaaag
b100000 aaaah
b100000 aaaai

#195
0aaaaa

#200
1aaaaa
b1110101000000 aaaaf
b111100000000 aaaag

#205
0aaaaa

#210
1aaaaa
b111100000000 aaaaf
b0 aaaag

#215
0aaaaa

#220
1aaaaa
b0 aaaaf
b11111111111000100000000 aaaag

#225
0aaaaa

#230
1aaaaa
b11111111111000100000000 aaaaf
b11111111110001011000000 aaaag

#235
0aaaaa

#240
1aaaaa
b11111111110001011000000 aaaaf
b11111111100011100000000 aaaag

#245
0aaaaa

#250
1aaaaa
b11111111111000100000000 aaaaf
b11111111010000000000000 aaaag

#255
0aaaaa

#260
1aaaaa
0aaaac
b111101100000 aaaaf
b1110100000 aaaag

#265
0aaaaa

#270
1aaaaa
1aaaac
0aaaae

#275
0aaaaa

#280
1aaaaa
1aaaae
b10001000000 aaaaf
b10001000000 aaaag
b0 aaaah
b11111111010000000000000 aaaai

#285
0aaaaa

#290
1aaaaa
b11111111111110100100000 aaaaf
b101010100000 aaaag
b1011011100001100 aaaah
b11111111100011101101100 aaaai

#295
0aaaaa

#300
1aaaaa
b110000000 aaaaf
b1100111000000 aaaag
b110000000000000 aaaah
b101010000000000 aaaai

#305
0aaaaa

#310
1aaaaa
b10110100000 aaaaf
b10101000000000 aaaag
b10011100001100 aaaah
b111001001010100 aaaai

#315
0aaaaa

#320
1aaaaa
b0 aaaaf
b100101000100000 aaaag
b0 aaaah
b110000000000000 aaaai

#325
0aaaaa

#330
1aaaaa
b100001100000 aaaaf
b110011011100000 aaaag
b11111111101100011110100 aaaah
b101001110010100 aaaai

#335
0aaaaa

#340
1aaaaa
b1000011000000 aaaaf
b11010011000000 aaaag
b11111111010000000000000 aaaah
b101010000000000 aaaai

#345
0aaaaa

#350
1aaaaa
0aaaac
b11111110100100011110100 aaaah
b1001001010101100 aaaai

#355
0aaaaa

#360
1aaaaa
1aaaac
0aaaad
0aaaae

#365
0aaaaa

#370
1aaaaa
1aaaae
b11000100000000 aaaah
b10011110000000000 aaaai

#375
0aaaaa

#380
1aaaaa
b11111110111010111100011 aaaah
b11111111100110111110111 aaaai

#385
0aaaaa

#390
1aaaaa
b111101100000 aaaah
b11111111100101000100000 aaaai

#395
0aaaaa

#400
1aaaaa
b1001001011011 aaaah
b11111111111010100011001 aaaai

#405
0aaaaa

#410
1aaaaa
b10000000000 aaaah
b1001000000 aaaai

#415
0aaaaa

#420
1aaaaa
b11111111110010100011101 aaaah
b11111111111101111001001 aaaai

#425
0aaaaa

#430
1aaaaa
b111110100000 aaaah
b11111111010111000100000 aaaai

#435
0aaaaa

#440
1aaaaa
b1011100110100101 aaaah
b11111111010011110100111 aaaai

#445
0aaaaa

#450
1aaaaa
0aaaae

